{
  "powerToolsList" : [ {
    "model" : "M347-5",
    "handy" : "ONE_HANDED",
    "origin" : "США",
    "growingCharacteristic" : {
      "energy" : "AVERAGE",
      "productivity" : 147,
      "autonomous" : false
    },
    "material" : "металл"
  }, {
    "model" : "M377-7",
    "handy" : "TWO_HANDED",
    "origin" : "США",
    "growingCharacteristic" : {
      "energy" : "HIGH",
      "productivity" : 250,
      "autonomous" : true
    },
    "material" : "металл"
  }, {
    "model" : "GB3-547",
    "handy" : "ONE_HANDED",
    "origin" : "Китай",
    "growingCharacteristic" : {
      "energy" : "HIGH",
      "productivity" : 162,
      "autonomous" : false
    },
    "material" : "пластик"
  } ]
}